…
Go from wide format to long format. State columns and where they will be
stores given respective values. Use this if multiple variables contain
the same values for a type of data.

``` r
pulse_tidy_df= 
  pulse_df |>
  pivot_longer(
    cols= bdi_score_bl:bdi_score_12m,
    names_to = "visit", 
    values_to= "bdi")
pulse_tidy_df
```

    ## # A tibble: 4,348 × 5
    ##       id   age sex   visit           bdi
    ##    <dbl> <dbl> <chr> <chr>         <dbl>
    ##  1 10003  48.0 male  bdi_score_bl      7
    ##  2 10003  48.0 male  bdi_score_01m     1
    ##  3 10003  48.0 male  bdi_score_06m     2
    ##  4 10003  48.0 male  bdi_score_12m     0
    ##  5 10015  72.5 male  bdi_score_bl      6
    ##  6 10015  72.5 male  bdi_score_01m    NA
    ##  7 10015  72.5 male  bdi_score_06m    NA
    ##  8 10015  72.5 male  bdi_score_12m    NA
    ##  9 10022  58.5 male  bdi_score_bl     14
    ## 10 10022  58.5 male  bdi_score_01m     3
    ## # ℹ 4,338 more rows
…
``` r
pulse_tidy_df = 
  pivot_longer(
    pulse_df, 
    bdi_score_bl:bdi_score_12m,
    names_to = "visit", 
    names_prefix = "bdi_score_",
    values_to = "bdi")

pulse_tidy_df
```

    ## # A tibble: 4,348 × 5
    ##       id   age sex   visit   bdi
    ##    <dbl> <dbl> <chr> <chr> <dbl>
    ##  1 10003  48.0 male  bl        7
    ##  2 10003  48.0 male  01m       1
    ##  3 10003  48.0 male  06m       2
    ##  4 10003  48.0 male  12m       0
    ##  5 10015  72.5 male  bl        6
    ##  6 10015  72.5 male  01m      NA
    ##  7 10015  72.5 male  06m      NA
    ##  8 10015  72.5 male  12m      NA
    ##  9 10022  58.5 male  bl       14
    ## 10 10022  58.5 male  01m       3
    ## # ℹ 4,338 more rows
…
print(pulse_tidy_df, n = 12)
```

    ## # A tibble: 4,348 × 5
    ##       id visit   age sex     bdi
    ##    <dbl> <fct> <dbl> <chr> <dbl>
    ##  1 10003 00m    48.0 male      7
    ##  2 10003 01m    48.0 male      1
    ##  3 10003 06m    48.0 male      2
    ##  4 10003 12m    48.0 male      0
    ##  5 10015 00m    72.5 male      6
    ##  6 10015 01m    72.5 male     NA
    ##  7 10015 06m    72.5 male     NA
    ##  8 10015 12m    72.5 male     NA
    ##  9 10022 00m    58.5 male     14
    ## 10 10022 01m    58.5 male      3
    ## 11 10022 06m    58.5 male      8
    ## 12 10022 12m    58.5 male     NA
    ## # ℹ 4,336 more rows
…
print(pulse_df, n = 12)
```

    ## # A tibble: 4,348 × 5
    ##       id visit   age sex     bdi
    ##    <dbl> <fct> <dbl> <chr> <dbl>
    ##  1 10003 00m    48.0 male      7
    ##  2 10003 01m    48.0 male      1
    ##  3 10003 06m    48.0 male      2
    ##  4 10003 12m    48.0 male      0
    ##  5 10015 00m    72.5 male      6
    ##  6 10015 01m    72.5 male     NA
    ##  7 10015 06m    72.5 male     NA
    ##  8 10015 12m    72.5 male     NA
    ##  9 10022 00m    58.5 male     14
    ## 10 10022 01m    58.5 male      3
    ## 11 10022 06m    58.5 male      8
    ## 12 10022 12m    58.5 male     NA
    ## # ℹ 4,336 more rows
…
    ## Rows: 49 Columns: 8
    ## ── Column specification ────────────────────────────────────────────────────────
    ## Delimiter: ","
    ## chr (4): Group, Litter Number, GD0 weight, GD18 weight
    ## dbl (4): GD of Birth, Pups born alive, Pups dead @ birth, Pups survive
    ## 
    ## ℹ Use `spec()` to retrieve the full column specification for this data.
    ## ℹ Specify the column types or set `show_col_types = FALSE` to quiet this message.

``` r
litters_df
```

    ## # A tibble: 98 × 8
    ##    group litter_number gd_of_birth pups_born_alive pups_dead_birth pups_survive
    ##    <chr> <chr>               <dbl>           <dbl>           <dbl>        <dbl>
    ##  1 Con7  #85                    20               3               4            3
    ##  2 Con7  #85                    20               3               4            3
    ##  3 Con7  #1/2/95/2              19               8               0            7
    ##  4 Con7  #1/2/95/2              19               8               0            7
    ##  5 Con7  #5/5/3/83/3-3          19               6               0            5
    ##  6 Con7  #5/5/3/83/3-3          19               6               0            5
    ##  7 Con7  #5/4/2/95/2            19               5               1            4
    ##  8 Con7  #5/4/2/95/2            19               5               1            4
    ##  9 Con7  #4/2/95/3-3            20               6               0            6
    ## 10 Con7  #4/2/95/3-3            20               6               0            6
    ## # ℹ 88 more rows
    ## # ℹ 2 more variables: gd_time <dbl>, weight <chr>
…
    ## Rows: 49 Columns: 8
    ## ── Column specification ────────────────────────────────────────────────────────
    ## Delimiter: ","
    ## chr (2): Group, Litter Number
    ## dbl (6): GD0 weight, GD18 weight, GD of Birth, Pups born alive, Pups dead @ ...
    ## 
    ## ℹ Use `spec()` to retrieve the full column specification for this data.
    ## ℹ Specify the column types or set `show_col_types = FALSE` to quiet this message.

``` r
litters_df
```

    ## # A tibble: 49 × 10
    ##    dose  day_of_treatment litter_number   gd0_weight gd18_weight gd_of_birth
    ##    <chr> <chr>            <chr>                <dbl>       <dbl>       <dbl>
    ##  1 Con   7                #85                   19.7        34.7          20
    ##  2 Con   7                #1/2/95/2             27          42            19
    ##  3 Con   7                #5/5/3/83/3-3         26          41.4          19
    ##  4 Con   7                #5/4/2/95/2           28.5        44.1          19
    ##  5 Con   7                #4/2/95/3-3           NA          NA            20
    ##  6 Con   7                #2/2/95/3-2           NA          NA            20
    ##  7 Con   7                #1/5/3/83/3-3/2       NA          NA            20
    ##  8 Con   8                #3/83/3-3             NA          NA            20
    ##  9 Con   8                #2/95/3               NA          NA            20
    ## 10 Con   8                #3/5/2/2/95           28.5        NA            20
    ## # ℹ 39 more rows
    ## # ℹ 4 more variables: pups_born_alive <dbl>, pups_dead_birth <dbl>,
    ## #   pups_survive <dbl>, wt_gain <dbl>
…
    ## Rows: 313 Columns: 6
    ## ── Column specification ────────────────────────────────────────────────────────
    ## Delimiter: ","
    ## chr (1): Litter Number
    ## dbl (5): Sex, PD ears, PD eyes, PD pivot, PD walk
    ## 
    ## ℹ Use `spec()` to retrieve the full column specification for this data.
    ## ℹ Specify the column types or set `show_col_types = FALSE` to quiet this message.

``` r
pups_df
```

    ## # A tibble: 313 × 6
    ##    litter_number sex   pd_ears pd_eyes pd_pivot pd_walk
    ##    <chr>         <fct>   <dbl>   <dbl>    <dbl>   <dbl>
    ##  1 #85           male        4      13        7      11
    ##  2 #85           male        4      13        7      12
    ##  3 #1/2/95/2     male        5      13        7       9
    ##  4 #1/2/95/2     male        5      13        8      10
    ##  5 #5/5/3/83/3-3 male        5      13        8      10
    ##  6 #5/5/3/83/3-3 male        5      14        6       9
    ##  7 #5/4/2/95/2   male       NA      14        5       9
    ##  8 #4/2/95/3-3   male        4      13        6       8
    ##  9 #4/2/95/3-3   male        4      13        7       9
    ## 10 #2/2/95/3-2   male        4      NA        8      10
    ## # ℹ 303 more rows

Join the datasets - matching by variable litter number - using left
joining into the pups data frame. - rearrange so litter_number, dose,
day of treatment follow order

``` r
fas_df = 
  left_join(pups_df, litters_df, by = "litter_number")|>
  relocate (litter_number, dose, day_of_treatment)

fas_df
```

    ## # A tibble: 313 × 15
    ##    litter_number dose  day_of_treatment sex   pd_ears pd_eyes pd_pivot pd_walk
    ##    <chr>         <chr> <chr>            <fct>   <dbl>   <dbl>    <dbl>   <dbl>
    ##  1 #85           Con   7                male        4      13        7      11
    ##  2 #85           Con   7                male        4      13        7      12
    ##  3 #1/2/95/2     Con   7                male        5      13        7       9
    ##  4 #1/2/95/2     Con   7                male        5      13        8      10
    ##  5 #5/5/3/83/3-3 Con   7                male        5      13        8      10
    ##  6 #5/5/3/83/3-3 Con   7                male        5      14        6       9
    ##  7 #5/4/2/95/2   Con   7                male       NA      14        5       9
    ##  8 #4/2/95/3-3   Con   7                male        4      13        6       8
    ##  9 #4/2/95/3-3   Con   7                male        4      13        7       9
    ## 10 #2/2/95/3-2   Con   7                male        4      NA        8      10
    ## # ℹ 303 more rows
    ## # ℹ 7 more variables: gd0_weight <dbl>, gd18_weight <dbl>, gd_of_birth <dbl>,
    ## #   pups_born_alive <dbl>, pups_dead_birth <dbl>, pups_survive <dbl>,
    ## #   wt_gain <dbl>
…
